/home/chenxiao/anaconda3/lib/python3.6/site-packages/torch/cuda/__init__.py:114: UserWarning: 
    Found GPU0 Quadro GV100 which requires CUDA_VERSION >= 9000 for
     optimal performance and fast startup time, but your PyTorch was compiled
     with CUDA_VERSION 8000. Please install the correct PyTorch binary
     using instructions from http://pytorch.org
    
  warnings.warn(incorrect_binary_warn % (d, name, 9000, CUDA_VERSION))
/home/chenxiao/anaconda3/lib/python3.6/site-packages/torch/cuda/__init__.py:114: UserWarning: 
    Found GPU1 Quadro GV100 which requires CUDA_VERSION >= 9000 for
     optimal performance and fast startup time, but your PyTorch was compiled
     with CUDA_VERSION 8000. Please install the correct PyTorch binary
     using instructions from http://pytorch.org
    
  warnings.warn(incorrect_binary_warn % (d, name, 9000, CUDA_VERSION))
tensor(0.2691)
* number of parameters: 77281
save/results/result.txt
begin training
Traceback (most recent call last):
  File "main.py", line 163, in <module>
    train_loss = train(Data, Data.train[0], Data.train[1], model, criterion, optim, args.batch_size)
  File "main.py", line 55, in train
    output = model(X);
  File "/home/chenxiao/anaconda3/lib/python3.6/site-packages/torch/nn/modules/module.py", line 491, in __call__
    result = self.forward(*input, **kwargs)
  File "/home/chenxiao/WFNet/LSTNet_Revise/LSTNet/models/LSTNet.py", line 39, in forward
    c = F.relu(self.conv1(c));
  File "/home/chenxiao/anaconda3/lib/python3.6/site-packages/torch/nn/modules/module.py", line 491, in __call__
    result = self.forward(*input, **kwargs)
  File "/home/chenxiao/anaconda3/lib/python3.6/site-packages/torch/nn/modules/conv.py", line 301, in forward
    self.padding, self.dilation, self.groups)
RuntimeError: CUDNN_STATUS_MAPPING_ERROR
/home/chenxiao/anaconda3/lib/python3.6/site-packages/torch/cuda/__init__.py:114: UserWarning: 
    Found GPU0 Quadro GV100 which requires CUDA_VERSION >= 9000 for
     optimal performance and fast startup time, but your PyTorch was compiled
     with CUDA_VERSION 8000. Please install the correct PyTorch binary
     using instructions from http://pytorch.org
    
  warnings.warn(incorrect_binary_warn % (d, name, 9000, CUDA_VERSION))
/home/chenxiao/anaconda3/lib/python3.6/site-packages/torch/cuda/__init__.py:114: UserWarning: 
    Found GPU1 Quadro GV100 which requires CUDA_VERSION >= 9000 for
     optimal performance and fast startup time, but your PyTorch was compiled
     with CUDA_VERSION 8000. Please install the correct PyTorch binary
     using instructions from http://pytorch.org
    
  warnings.warn(incorrect_binary_warn % (d, name, 9000, CUDA_VERSION))
tensor(0.2691)
* number of parameters: 77281
save/results/result3.txt
begin training
Traceback (most recent call last):
  File "main.py", line 163, in <module>
    train_loss = train(Data, Data.train[0], Data.train[1], model, criterion, optim, args.batch_size)
  File "main.py", line 55, in train
    output = model(X);
  File "/home/chenxiao/anaconda3/lib/python3.6/site-packages/torch/nn/modules/module.py", line 491, in __call__
    result = self.forward(*input, **kwargs)
  File "/home/chenxiao/WFNet/LSTNet_Revise/LSTNet/models/LSTNet.py", line 39, in forward
    c = F.relu(self.conv1(c));
  File "/home/chenxiao/anaconda3/lib/python3.6/site-packages/torch/nn/modules/module.py", line 491, in __call__
    result = self.forward(*input, **kwargs)
  File "/home/chenxiao/anaconda3/lib/python3.6/site-packages/torch/nn/modules/conv.py", line 301, in forward
    self.padding, self.dilation, self.groups)
RuntimeError: CUDNN_STATUS_MAPPING_ERROR
/home/chenxiao/anaconda3/lib/python3.6/site-packages/torch/cuda/__init__.py:114: UserWarning: 
    Found GPU0 Quadro GV100 which requires CUDA_VERSION >= 9000 for
     optimal performance and fast startup time, but your PyTorch was compiled
     with CUDA_VERSION 8000. Please install the correct PyTorch binary
     using instructions from http://pytorch.org
    
  warnings.warn(incorrect_binary_warn % (d, name, 9000, CUDA_VERSION))
/home/chenxiao/anaconda3/lib/python3.6/site-packages/torch/cuda/__init__.py:114: UserWarning: 
    Found GPU1 Quadro GV100 which requires CUDA_VERSION >= 9000 for
     optimal performance and fast startup time, but your PyTorch was compiled
     with CUDA_VERSION 8000. Please install the correct PyTorch binary
     using instructions from http://pytorch.org
    
  warnings.warn(incorrect_binary_warn % (d, name, 9000, CUDA_VERSION))
tensor(0.2691)
* number of parameters: 77281
save/results/result2.txt
begin training
Traceback (most recent call last):
  File "main.py", line 163, in <module>
    train_loss = train(Data, Data.train[0], Data.train[1], model, criterion, optim, args.batch_size)
  File "main.py", line 55, in train
    output = model(X);
  File "/home/chenxiao/anaconda3/lib/python3.6/site-packages/torch/nn/modules/module.py", line 491, in __call__
    result = self.forward(*input, **kwargs)
  File "/home/chenxiao/WFNet/LSTNet_Revise/LSTNet/models/LSTNet.py", line 39, in forward
    c = F.relu(self.conv1(c));
  File "/home/chenxiao/anaconda3/lib/python3.6/site-packages/torch/nn/modules/module.py", line 491, in __call__
    result = self.forward(*input, **kwargs)
  File "/home/chenxiao/anaconda3/lib/python3.6/site-packages/torch/nn/modules/conv.py", line 301, in forward
    self.padding, self.dilation, self.groups)
RuntimeError: CUDNN_STATUS_MAPPING_ERROR
/home/chenxiao/anaconda3/lib/python3.6/site-packages/torch/cuda/__init__.py:114: UserWarning: 
    Found GPU0 Quadro GV100 which requires CUDA_VERSION >= 9000 for
     optimal performance and fast startup time, but your PyTorch was compiled
     with CUDA_VERSION 8000. Please install the correct PyTorch binary
     using instructions from http://pytorch.org
    
  warnings.warn(incorrect_binary_warn % (d, name, 9000, CUDA_VERSION))
/home/chenxiao/anaconda3/lib/python3.6/site-packages/torch/cuda/__init__.py:114: UserWarning: 
    Found GPU1 Quadro GV100 which requires CUDA_VERSION >= 9000 for
     optimal performance and fast startup time, but your PyTorch was compiled
     with CUDA_VERSION 8000. Please install the correct PyTorch binary
     using instructions from http://pytorch.org
    
  warnings.warn(incorrect_binary_warn % (d, name, 9000, CUDA_VERSION))
tensor(0.2691)
* number of parameters: 77281
save/results/result3.txt
begin training
Traceback (most recent call last):
  File "main.py", line 163, in <module>
    train_loss = train(Data, Data.train[0], Data.train[1], model, criterion, optim, args.batch_size)
  File "main.py", line 55, in train
    output = model(X);
  File "/home/chenxiao/anaconda3/lib/python3.6/site-packages/torch/nn/modules/module.py", line 491, in __call__
    result = self.forward(*input, **kwargs)
  File "/home/chenxiao/WFNet/LSTNet_Revise/LSTNet/models/LSTNet.py", line 39, in forward
    c = F.relu(self.conv1(c));
  File "/home/chenxiao/anaconda3/lib/python3.6/site-packages/torch/nn/modules/module.py", line 491, in __call__
    result = self.forward(*input, **kwargs)
  File "/home/chenxiao/anaconda3/lib/python3.6/site-packages/torch/nn/modules/conv.py", line 301, in forward
    self.padding, self.dilation, self.groups)
RuntimeError: CUDNN_STATUS_MAPPING_ERROR
/home/chenxiao/anaconda3/lib/python3.6/site-packages/torch/cuda/__init__.py:114: UserWarning: 
    Found GPU0 Quadro GV100 which requires CUDA_VERSION >= 9000 for
     optimal performance and fast startup time, but your PyTorch was compiled
     with CUDA_VERSION 8000. Please install the correct PyTorch binary
     using instructions from http://pytorch.org
    
  warnings.warn(incorrect_binary_warn % (d, name, 9000, CUDA_VERSION))
/home/chenxiao/anaconda3/lib/python3.6/site-packages/torch/cuda/__init__.py:114: UserWarning: 
    Found GPU1 Quadro GV100 which requires CUDA_VERSION >= 9000 for
     optimal performance and fast startup time, but your PyTorch was compiled
     with CUDA_VERSION 8000. Please install the correct PyTorch binary
     using instructions from http://pytorch.org
    
  warnings.warn(incorrect_binary_warn % (d, name, 9000, CUDA_VERSION))
tensor(0.2691)
* number of parameters: 77281
save/results/result3.txt
begin training
Traceback (most recent call last):
  File "main.py", line 163, in <module>
    train_loss = train(Data, Data.train[0], Data.train[1], model, criterion, optim, args.batch_size)
  File "main.py", line 55, in train
    output = model(X);
  File "/home/chenxiao/anaconda3/lib/python3.6/site-packages/torch/nn/modules/module.py", line 491, in __call__
    result = self.forward(*input, **kwargs)
  File "/home/chenxiao/WFNet/LSTNet_Revise/LSTNet/models/LSTNet.py", line 39, in forward
    c = F.relu(self.conv1(c));
  File "/home/chenxiao/anaconda3/lib/python3.6/site-packages/torch/nn/modules/module.py", line 491, in __call__
    result = self.forward(*input, **kwargs)
  File "/home/chenxiao/anaconda3/lib/python3.6/site-packages/torch/nn/modules/conv.py", line 301, in forward
    self.padding, self.dilation, self.groups)
RuntimeError: CUDNN_STATUS_MAPPING_ERROR
/home/chenxiao/anaconda3/lib/python3.6/site-packages/torch/cuda/__init__.py:114: UserWarning: 
    Found GPU0 Quadro GV100 which requires CUDA_VERSION >= 9000 for
     optimal performance and fast startup time, but your PyTorch was compiled
     with CUDA_VERSION 8000. Please install the correct PyTorch binary
     using instructions from http://pytorch.org
    
  warnings.warn(incorrect_binary_warn % (d, name, 9000, CUDA_VERSION))
/home/chenxiao/anaconda3/lib/python3.6/site-packages/torch/cuda/__init__.py:114: UserWarning: 
    Found GPU1 Quadro GV100 which requires CUDA_VERSION >= 9000 for
     optimal performance and fast startup time, but your PyTorch was compiled
     with CUDA_VERSION 8000. Please install the correct PyTorch binary
     using instructions from http://pytorch.org
    
  warnings.warn(incorrect_binary_warn % (d, name, 9000, CUDA_VERSION))
tensor(0.2691)
* number of parameters: 77281
save/results/result2.txt
begin training
Traceback (most recent call last):
  File "main.py", line 163, in <module>
    train_loss = train(Data, Data.train[0], Data.train[1], model, criterion, optim, args.batch_size)
  File "main.py", line 55, in train
    output = model(X);
  File "/home/chenxiao/anaconda3/lib/python3.6/site-packages/torch/nn/modules/module.py", line 491, in __call__
    result = self.forward(*input, **kwargs)
  File "/home/chenxiao/WFNet/LSTNet_Revise/LSTNet/models/LSTNet.py", line 39, in forward
    c = F.relu(self.conv1(c));
  File "/home/chenxiao/anaconda3/lib/python3.6/site-packages/torch/nn/modules/module.py", line 491, in __call__
    result = self.forward(*input, **kwargs)
  File "/home/chenxiao/anaconda3/lib/python3.6/site-packages/torch/nn/modules/conv.py", line 301, in forward
    self.padding, self.dilation, self.groups)
RuntimeError: CUDNN_STATUS_MAPPING_ERROR
/home/chenxiao/anaconda3/lib/python3.6/site-packages/torch/cuda/__init__.py:114: UserWarning: 
    Found GPU0 Quadro GV100 which requires CUDA_VERSION >= 9000 for
     optimal performance and fast startup time, but your PyTorch was compiled
     with CUDA_VERSION 8000. Please install the correct PyTorch binary
     using instructions from http://pytorch.org
    
  warnings.warn(incorrect_binary_warn % (d, name, 9000, CUDA_VERSION))
/home/chenxiao/anaconda3/lib/python3.6/site-packages/torch/cuda/__init__.py:114: UserWarning: 
    Found GPU1 Quadro GV100 which requires CUDA_VERSION >= 9000 for
     optimal performance and fast startup time, but your PyTorch was compiled
     with CUDA_VERSION 8000. Please install the correct PyTorch binary
     using instructions from http://pytorch.org
    
  warnings.warn(incorrect_binary_warn % (d, name, 9000, CUDA_VERSION))
tensor(0.2691)
* number of parameters: 77281
save/results/resultt.txt
begin training
Traceback (most recent call last):
  File "main.py", line 163, in <module>
    train_loss = train(Data, Data.train[0], Data.train[1], model, criterion, optim, args.batch_size)
  File "main.py", line 55, in train
    output = model(X);
  File "/home/chenxiao/anaconda3/lib/python3.6/site-packages/torch/nn/modules/module.py", line 491, in __call__
    result = self.forward(*input, **kwargs)
  File "/home/chenxiao/WFNet/LSTNet_Revise/LSTNet/models/LSTNet.py", line 39, in forward
    c = F.relu(self.conv1(c));
  File "/home/chenxiao/anaconda3/lib/python3.6/site-packages/torch/nn/modules/module.py", line 491, in __call__
    result = self.forward(*input, **kwargs)
  File "/home/chenxiao/anaconda3/lib/python3.6/site-packages/torch/nn/modules/conv.py", line 301, in forward
    self.padding, self.dilation, self.groups)
RuntimeError: CUDNN_STATUS_MAPPING_ERROR
WARNING: You have a CUDA device, so you should probably run with --cuda
tensor(0.2691)
* number of parameters: 77281
save/results/resultf.txt
begin training
| end of epoch   1 | time: 343.28s | train_loss 0.1169 | valid rse 0.3793 | valid rae 0.2750 | valid corr  0.9151
| end of epoch   2 | time: 280.55s | train_loss 0.0611 | valid rse 0.3622 | valid rae 0.2400 | valid corr  0.9204
| end of epoch   3 | time: 244.89s | train_loss 0.0560 | valid rse 0.3585 | valid rae 0.2227 | valid corr  0.9218
| end of epoch   4 | time: 248.36s | train_loss 0.0538 | valid rse 0.3568 | valid rae 0.2316 | valid corr  0.9229
| end of epoch   5 | time: 274.78s | train_loss 0.0515 | valid rse 0.3594 | valid rae 0.2459 | valid corr  0.9230
test rse 0.4617 | test rae 0.3380 | test corr 0.8835
| end of epoch   6 | time: 279.74s | train_loss 0.0501 | valid rse 0.3572 | valid rae 0.2177 | valid corr  0.9235
| end of epoch   7 | time: 282.35s | train_loss 0.0497 | valid rse 0.3580 | valid rae 0.2126 | valid corr  0.9231
| end of epoch   8 | time: 251.83s | train_loss 0.0490 | valid rse 0.3584 | valid rae 0.2155 | valid corr  0.9230
| end of epoch   9 | time: 239.95s | train_loss 0.0485 | valid rse 0.3668 | valid rae 0.2341 | valid corr  0.9220
| end of epoch  10 | time: 253.14s | train_loss 0.0479 | valid rse 0.3595 | valid rae 0.2141 | valid corr  0.9215
test rse 0.4464 | test rae 0.3013 | test corr 0.8876
| end of epoch  11 | time: 241.58s | train_loss 0.0479 | valid rse 0.3607 | valid rae 0.2169 | valid corr  0.9214
| end of epoch  12 | time: 242.95s | train_loss 0.0476 | valid rse 0.3617 | valid rae 0.2106 | valid corr  0.9212
| end of epoch  13 | time: 244.80s | train_loss 0.0476 | valid rse 0.3617 | valid rae 0.2238 | valid corr  0.9211
| end of epoch  14 | time: 246.50s | train_loss 0.0474 | valid rse 0.3602 | valid rae 0.2101 | valid corr  0.9218
| end of epoch  15 | time: 242.99s | train_loss 0.0474 | valid rse 0.3620 | valid rae 0.2114 | valid corr  0.9212
test rse 0.4579 | test rae 0.3068 | test corr 0.8845
| end of epoch  16 | time: 243.45s | train_loss 0.0472 | valid rse 0.3627 | valid rae 0.2251 | valid corr  0.9207
| end of epoch  17 | time: 245.86s | train_loss 0.0470 | valid rse 0.3692 | valid rae 0.2360 | valid corr  0.9210
| end of epoch  18 | time: 243.80s | train_loss 0.0471 | valid rse 0.3630 | valid rae 0.2146 | valid corr  0.9210
| end of epoch  19 | time: 243.05s | train_loss 0.0470 | valid rse 0.3633 | valid rae 0.2115 | valid corr  0.9205
| end of epoch  20 | time: 244.90s | train_loss 0.0469 | valid rse 0.3627 | valid rae 0.2097 | valid corr  0.9208
test rse 0.4630 | test rae 0.3155 | test corr 0.8828
| end of epoch  21 | time: 243.49s | train_loss 0.0470 | valid rse 0.3640 | valid rae 0.2139 | valid corr  0.9199
| end of epoch  22 | time: 244.78s | train_loss 0.0467 | valid rse 0.3642 | valid rae 0.2143 | valid corr  0.9203
| end of epoch  23 | time: 246.50s | train_loss 0.0465 | valid rse 0.3632 | valid rae 0.2108 | valid corr  0.9203
| end of epoch  24 | time: 244.65s | train_loss 0.0466 | valid rse 0.3639 | valid rae 0.2108 | valid corr  0.9207
| end of epoch  25 | time: 243.23s | train_loss 0.0466 | valid rse 0.3660 | valid rae 0.2144 | valid corr  0.9194
test rse 0.4498 | test rae 0.2965 | test corr 0.8858
| end of epoch  26 | time: 250.90s | train_loss 0.0465 | valid rse 0.3643 | valid rae 0.2102 | valid corr  0.9204
| end of epoch  27 | time: 246.76s | train_loss 0.0464 | valid rse 0.3634 | valid rae 0.2120 | valid corr  0.9209
| end of epoch  28 | time: 247.45s | train_loss 0.0463 | valid rse 0.3641 | valid rae 0.2140 | valid corr  0.9208
| end of epoch  29 | time: 248.05s | train_loss 0.0463 | valid rse 0.3636 | valid rae 0.2130 | valid corr  0.9204
| end of epoch  30 | time: 240.26s | train_loss 0.0460 | valid rse 0.3658 | valid rae 0.2139 | valid corr  0.9199
test rse 0.4685 | test rae 0.3151 | test corr 0.8809
| end of epoch  31 | time: 249.18s | train_loss 0.0459 | valid rse 0.3644 | valid rae 0.2109 | valid corr  0.9203
| end of epoch  32 | time: 245.30s | train_loss 0.0459 | valid rse 0.3640 | valid rae 0.2173 | valid corr  0.9200
| end of epoch  33 | time: 248.74s | train_loss 0.0460 | valid rse 0.3629 | valid rae 0.2129 | valid corr  0.9203
| end of epoch  34 | time: 241.16s | train_loss 0.0458 | valid rse 0.3619 | valid rae 0.2112 | valid corr  0.9209
| end of epoch  35 | time: 240.90s | train_loss 0.0459 | valid rse 0.3638 | valid rae 0.2121 | valid corr  0.9211
test rse 0.4831 | test rae 0.3238 | test corr 0.8772
| end of epoch  36 | time: 245.60s | train_loss 0.0457 | valid rse 0.3631 | valid rae 0.2093 | valid corr  0.9207
| end of epoch  37 | time: 244.00s | train_loss 0.0458 | valid rse 0.3622 | valid rae 0.2113 | valid corr  0.9206
| end of epoch  38 | time: 242.75s | train_loss 0.0456 | valid rse 0.3629 | valid rae 0.2199 | valid corr  0.9202
| end of epoch  39 | time: 250.98s | train_loss 0.0460 | valid rse 0.3620 | valid rae 0.2135 | valid corr  0.9209
| end of epoch  40 | time: 243.91s | train_loss 0.0457 | valid rse 0.3621 | valid rae 0.2142 | valid corr  0.9206
test rse 0.4682 | test rae 0.3176 | test corr 0.8804
| end of epoch  41 | time: 246.70s | train_loss 0.0455 | valid rse 0.3624 | valid rae 0.2135 | valid corr  0.9208
| end of epoch  42 | time: 241.74s | train_loss 0.0455 | valid rse 0.3630 | valid rae 0.2098 | valid corr  0.9209
| end of epoch  43 | time: 248.63s | train_loss 0.0453 | valid rse 0.3612 | valid rae 0.2168 | valid corr  0.9209
| end of epoch  44 | time: 245.21s | train_loss 0.0455 | valid rse 0.3628 | valid rae 0.2106 | valid corr  0.9205
| end of epoch  45 | time: 249.88s | train_loss 0.0454 | valid rse 0.3625 | valid rae 0.2137 | valid corr  0.9206
test rse 0.4547 | test rae 0.3016 | test corr 0.8848
| end of epoch  46 | time: 242.05s | train_loss 0.0456 | valid rse 0.3632 | valid rae 0.2124 | valid corr  0.9207
| end of epoch  47 | time: 246.00s | train_loss 0.0453 | valid rse 0.3617 | valid rae 0.2151 | valid corr  0.9208
| end of epoch  48 | time: 240.62s | train_loss 0.0454 | valid rse 0.3614 | valid rae 0.2144 | valid corr  0.9211
| end of epoch  49 | time: 246.41s | train_loss 0.0452 | valid rse 0.3618 | valid rae 0.2129 | valid corr  0.9207
| end of epoch  50 | time: 245.11s | train_loss 0.0450 | valid rse 0.3615 | valid rae 0.2115 | valid corr  0.9214
test rse 0.4842 | test rae 0.3225 | test corr 0.8765
| end of epoch  51 | time: 245.19s | train_loss 0.0453 | valid rse 0.3608 | valid rae 0.2114 | valid corr  0.9214
| end of epoch  52 | time: 246.58s | train_loss 0.0451 | valid rse 0.3632 | valid rae 0.2116 | valid corr  0.9206
| end of epoch  53 | time: 248.30s | train_loss 0.0448 | valid rse 0.3621 | valid rae 0.2116 | valid corr  0.9214
| end of epoch  54 | time: 237.64s | train_loss 0.0450 | valid rse 0.3595 | valid rae 0.2124 | valid corr  0.9216
| end of epoch  55 | time: 245.59s | train_loss 0.0448 | valid rse 0.3603 | valid rae 0.2115 | valid corr  0.9214
test rse 0.4728 | test rae 0.3232 | test corr 0.8792
| end of epoch  56 | time: 243.82s | train_loss 0.0448 | valid rse 0.3658 | valid rae 0.2125 | valid corr  0.9204
| end of epoch  57 | time: 247.90s | train_loss 0.0448 | valid rse 0.3610 | valid rae 0.2105 | valid corr  0.9212
| end of epoch  58 | time: 240.28s | train_loss 0.0449 | valid rse 0.3598 | valid rae 0.2128 | valid corr  0.9214
| end of epoch  59 | time: 245.51s | train_loss 0.0446 | valid rse 0.3618 | valid rae 0.2129 | valid corr  0.9208
| end of epoch  60 | time: 242.87s | train_loss 0.0449 | valid rse 0.3619 | valid rae 0.2106 | valid corr  0.9215
test rse 0.4655 | test rae 0.3108 | test corr 0.8824
| end of epoch  61 | time: 241.43s | train_loss 0.0445 | valid rse 0.3610 | valid rae 0.2162 | valid corr  0.9213
| end of epoch  62 | time: 249.84s | train_loss 0.0446 | valid rse 0.3617 | valid rae 0.2126 | valid corr  0.9211
| end of epoch  63 | time: 247.93s | train_loss 0.0445 | valid rse 0.3631 | valid rae 0.2137 | valid corr  0.9210
| end of epoch  64 | time: 247.13s | train_loss 0.0446 | valid rse 0.3608 | valid rae 0.2118 | valid corr  0.9211
| end of epoch  65 | time: 246.03s | train_loss 0.0447 | valid rse 0.3612 | valid rae 0.2115 | valid corr  0.9211main.py:60: UserWarning: invalid index of a 0-dim tensor. This will be an error in PyTorch 0.5. Use tensor.item() to convert a 0-dim tensor to a Python number
  total_loss += loss.data[0];
main.py:32: UserWarning: invalid index of a 0-dim tensor. This will be an error in PyTorch 0.5. Use tensor.item() to convert a 0-dim tensor to a Python number
  total_loss += evaluateL2(output * scale, Y * scale).data[0]
main.py:33: UserWarning: invalid index of a 0-dim tensor. This will be an error in PyTorch 0.5. Use tensor.item() to convert a 0-dim tensor to a Python number
  total_loss_l1 += evaluateL1(output * scale, Y * scale).data[0]

test rse 0.4650 | test rae 0.3147 | test corr 0.8813
| end of epoch  66 | time: 247.58s | train_loss 0.0445 | valid rse 0.3617 | valid rae 0.2160 | valid corr  0.9208
| end of epoch  67 | time: 247.64s | train_loss 0.0441 | valid rse 0.3635 | valid rae 0.2171 | valid corr  0.9203
| end of epoch  68 | time: 242.21s | train_loss 0.0442 | valid rse 0.3604 | valid rae 0.2185 | valid corr  0.9214
| end of epoch  69 | time: 246.98s | train_loss 0.0440 | valid rse 0.3595 | valid rae 0.2113 | valid corr  0.9216
| end of epoch  70 | time: 244.41s | train_loss 0.0440 | valid rse 0.3619 | valid rae 0.2118 | valid corr  0.9210
test rse 0.4820 | test rae 0.3246 | test corr 0.8761
| end of epoch  71 | time: 245.84s | train_loss 0.0441 | valid rse 0.3601 | valid rae 0.2126 | valid corr  0.9215
| end of epoch  72 | time: 246.04s | train_loss 0.0440 | valid rse 0.3612 | valid rae 0.2111 | valid corr  0.9208
| end of epoch  73 | time: 245.70s | train_loss 0.0438 | valid rse 0.3589 | valid rae 0.2117 | valid corr  0.9217
| end of epoch  74 | time: 241.60s | train_loss 0.0438 | valid rse 0.3601 | valid rae 0.2135 | valid corr  0.9221
| end of epoch  75 | time: 243.55s | train_loss 0.0439 | valid rse 0.3598 | valid rae 0.2117 | valid corr  0.9215
test rse 0.4806 | test rae 0.3235 | test corr 0.8763
| end of epoch  76 | time: 249.31s | train_loss 0.0438 | valid rse 0.3599 | valid rae 0.2147 | valid corr  0.9214
| end of epoch  77 | time: 247.38s | train_loss 0.0441 | valid rse 0.3604 | valid rae 0.2114 | valid corr  0.9220
| end of epoch  78 | time: 201.02s | train_loss 0.0440 | valid rse 0.3610 | valid rae 0.2220 | valid corr  0.9213
| end of epoch  79 | time: 241.51s | train_loss 0.0438 | valid rse 0.3603 | valid rae 0.2155 | valid corr  0.9212
| end of epoch  80 | time: 243.89s | train_loss 0.0437 | valid rse 0.3609 | valid rae 0.2142 | valid corr  0.9212
test rse 0.4756 | test rae 0.3232 | test corr 0.8774
| end of epoch  81 | time: 235.25s | train_loss 0.0438 | valid rse 0.3606 | valid rae 0.2120 | valid corr  0.9215
| end of epoch  82 | time: 243.89s | train_loss 0.0435 | valid rse 0.3603 | valid rae 0.2109 | valid corr  0.9216
| end of epoch  83 | time: 237.14s | train_loss 0.0435 | valid rse 0.3608 | valid rae 0.2128 | valid corr  0.9211
| end of epoch  84 | time: 243.09s | train_loss 0.0436 | valid rse 0.3614 | valid rae 0.2105 | valid corr  0.9213
| end of epoch  85 | time: 240.01s | train_loss 0.0435 | valid rse 0.3620 | valid rae 0.2177 | valid corr  0.9207
test rse 0.4774 | test rae 0.3236 | test corr 0.8751
| end of epoch  86 | time: 244.01s | train_loss 0.0434 | valid rse 0.3605 | valid rae 0.2117 | valid corr  0.9213
| end of epoch  87 | time: 241.20s | train_loss 0.0435 | valid rse 0.3607 | valid rae 0.2116 | valid corr  0.9218
| end of epoch  88 | time: 244.21s | train_loss 0.0435 | valid rse 0.3609 | valid rae 0.2153 | valid corr  0.9215
| end of epoch  89 | time: 240.56s | train_loss 0.0433 | valid rse 0.3608 | valid rae 0.2143 | valid corr  0.9210
| end of epoch  90 | time: 242.72s | train_loss 0.0432 | valid rse 0.3615 | valid rae 0.2132 | valid corr  0.9208
test rse 0.4895 | test rae 0.3245 | test corr 0.8715
| end of epoch  91 | time: 242.94s | train_loss 0.0433 | valid rse 0.3629 | valid rae 0.2134 | valid corr  0.9207
| end of epoch  92 | time: 238.96s | train_loss 0.0433 | valid rse 0.3610 | valid rae 0.2101 | valid corr  0.9214
| end of epoch  93 | time: 242.22s | train_loss 0.0434 | valid rse 0.3645 | valid rae 0.2200 | valid corr  0.9207
| end of epoch  94 | time: 243.43s | train_loss 0.0433 | valid rse 0.3618 | valid rae 0.2125 | valid corr  0.9208
| end of epoch  95 | time: 242.56s | train_loss 0.0433 | valid rse 0.3594 | valid rae 0.2135 | valid corr  0.9214
test rse 0.4709 | test rae 0.3101 | test corr 0.8781
| end of epoch  96 | time: 240.75s | train_loss 0.0431 | valid rse 0.3593 | valid rae 0.2118 | valid corr  0.9216
| end of epoch  97 | time: 241.43s | train_loss 0.0431 | valid rse 0.3622 | valid rae 0.2149 | valid corr  0.9207
| end of epoch  98 | time: 241.29s | train_loss 0.0431 | valid rse 0.3613 | valid rae 0.2119 | valid corr  0.9215
| end of epoch  99 | time: 239.43s | train_loss 0.0431 | valid rse 0.3609 | valid rae 0.2191 | valid corr  0.9210
| end of epoch 100 | time: 241.74s | train_loss 0.0431 | valid rse 0.3605 | valid rae 0.2129 | valid corr  0.9213
test rse 0.4880 | test rae 0.3279 | test corr 0.8732
test rse 0.4745 | test rae 0.3416 | test corr 0.8793
